<?xml version="1.0" encoding="UTF-8" standalone="no"?>
<svg
   xmlns:dc="http://purl.org/dc/elements/1.1/"
   xmlns:cc="http://creativecommons.org/ns#"
   xmlns:rdf="http://www.w3.org/1999/02/22-rdf-syntax-ns#"
   xmlns:svg="http://www.w3.org/2000/svg"
   xmlns="http://www.w3.org/2000/svg"
   width="768"
   height="768"
   viewBox="0 0 768.00001 767.99998"
   id="svg2"
   version="1.1">
  <defs
     id="defs4" />
  <metadata
     id="metadata7">
    <rdf:RDF>
      <cc:Work
         rdf:about="">
        <dc:format>image/svg+xml</dc:format>
        <dc:type
           rdf:resource="http://purl.org/dc/dcmitype/StillImage" />
        <dc:title></dc:title>
      </cc:Work>
    </rdf:RDF>
  </metadata>
  <g
     id="layer1"
     transform="translate(-29.2287,-204.57911)">
    <g
       id="g4259"
       transform="matrix(3.6537418,0,0,3.6537418,-711.0951,-1111.6548)">
      <path
         id="path4249"
         d="m 307.9759,506.60767 c -0.1718,-5.84955 0.0611,-11.66371 -0.69291,-17.81703 20.46823,-10.88283 36.1603,-20.44315 57.75238,-32.89133 0.29773,5.22763 0.19767,11.24613 0.24386,15.50016 -19.37182,10.45261 -38.29427,25.31251 -57.30333,35.2082 z"
         style="opacity:1;fill:#ff5050;fill-opacity:1;fill-rule:nonzero;stroke:none;stroke-width:5.44899988;stroke-linecap:round;stroke-linejoin:miter;stroke-miterlimit:0;stroke-dasharray:none;stroke-dashoffset:0;stroke-opacity:0.81875" />
      <path
         id="path4251"
         d="m 308.11563,438.92441 c 4.4346,-2.44609 9.80636,-5.07136 14.24116,-7.51709 -0.41462,11.62941 0.0382,21.14917 0.0344,33.56357 -5.01056,2.1855 -9.67059,5.58337 -13.73452,8.02644 -0.86826,-11.69492 0.45341,-23.76806 -0.54099,-34.07292 z"
         style="opacity:1;fill:#ff5050;fill-opacity:1;fill-rule:nonzero;stroke:none;stroke-width:5.44899988;stroke-linecap:round;stroke-linejoin:miter;stroke-miterlimit:0;stroke-dasharray:none;stroke-dashoffset:0;stroke-opacity:0.81875" />
      <path
         id="path4247"
         d="m 264.73954,463.9461 c 9.31868,-4.76461 19.00134,-11.08921 28.03572,-16.36185 0.28098,5.33801 0.50173,10.51206 0.40183,15.99041 -5.46718,2.12212 -10.0902,5.40269 -15.3125,8.0492 -0.637,5.55851 0,10.99427 0,16.57658 9.83607,6.00908 19.88655,11.91806 29.77297,18.27681 -14.47245,8.13066 -28.49194,18.11159 -42.93499,26.26993 0.29353,-24.13691 0.0197,-44.07109 0.037,-68.80108 z"
         style="opacity:1;fill:#ff5050;fill-opacity:1;fill-rule:nonzero;stroke:none;stroke-width:5.44899988;stroke-linecap:round;stroke-linejoin:miter;stroke-miterlimit:0;stroke-dasharray:none;stroke-dashoffset:0;stroke-opacity:0.81875" />
      <path
         id="path4253"
         d="m 293.35719,463.80159 c 0.90208,-6.43277 -0.7373,-11.09909 -0.0938,-17.08654 -4.52064,-3.37146 -9.44068,-5.43116 -14.28984,-8.2875 -9.55949,4.56526 -18.93353,11.62913 -28.2702,16.53426 -0.13247,-0.13246 -0.75218,-48.29603 -0.62382,-48.46955 0.0735,-0.0994 57.38414,31.85502 57.69472,32.17111 0.27443,0.2793 0.64237,33.98165 0.37027,33.9466 -4.8769,-3.41611 -9.60972,-5.6385 -14.78732,-8.80838 z"
         style="opacity:1;fill:#ff4141;fill-opacity:1;fill-rule:nonzero;stroke:none;stroke-width:5.44899988;stroke-linecap:round;stroke-linejoin:miter;stroke-miterlimit:0;stroke-dasharray:none;stroke-dashoffset:0;stroke-opacity:0.81875" />
      <path
         id="path4257"
         d="m 278.19579,487.80888 c -0.16045,-5.17237 -0.3954,-10.25741 -0.10431,-15.42921 9.66843,6.03523 19.04289,10.69513 28.87628,16.49214 -0.56754,5.83227 0.71147,11.39931 0.42446,16.74877 -9.38009,-6.19822 -19.60277,-11.95431 -29.19643,-17.8117 z"
         style="opacity:1;fill:#ff4141;fill-opacity:1;fill-rule:nonzero;stroke:none;stroke-width:5.44899988;stroke-linecap:round;stroke-linejoin:miter;stroke-miterlimit:0;stroke-dasharray:none;stroke-dashoffset:0;stroke-opacity:0.81875" />
      <path
         id="path4255"
         d="m 251.0485,524.54946 c 0.81735,-19.91283 -0.97747,-51.69289 -0.39895,-69.42329 2.59523,1.5116 13.19691,8.15513 13.53023,8.46176 -0.13202,24.49746 0.16812,39.39219 0.0875,68.99976 -4.20523,-2.79813 -8.56129,-5.75505 -13.21875,-8.03823 z"
         style="opacity:1;fill:#ff4141;fill-opacity:1;fill-rule:nonzero;stroke:none;stroke-width:5.44899988;stroke-linecap:round;stroke-linejoin:miter;stroke-miterlimit:0;stroke-dasharray:none;stroke-dashoffset:0;stroke-opacity:0.81875" />
      <path
         id="path3347"
         d="m 264.27605,397.20373 -0.25195,0.15039 -14.64063,8.73243 0.52735,49.39453 -0.0332,0.0547 0.0352,0.0215 0.74024,69.2832 14.13281,8.63672 L 366.05345,471.80337 365.79173,455.069 264.2761,397.20376 Z m -13.88283,9.77344 57.18359,32.27734 0.38672,32.73633 -14.14453,-8.58007 -0.26172,-16.99415 -0.0234,0.0137 0.0117,-0.0195 -14.51367,-8.56055 -28.13086,16.63086 -0.50781,-47.50391 z m 71.66211,24.87695 0.0625,32.56836 -13.15039,7.89063 -0.38867,-32.99024 z m -29.4707,16.29116 0.23242,15.1582 -15.41797,7.84961 -0.0293,-0.0176 0,0.0312 -0.006,0.004 0.006,0.0117 0,17.01758 29.88867,18.23828 -42.2246,25.7168 -0.0137,-67.91016 27.56446,-16.09961 z m -41.66602,8.0293 13.10156,8.04492 0.0137,67.62695 -12.38672,-7.57031 -0.72852,-68.10156 z m 113.89258,0.0859 0.23242,14.98633 -56.88086,34.64063 -0.49023,-16.67383 z m -86.44141,16.62305 28.3125,16.67969 0.45899,15.63281 -28.77149,-17.55664 z"
         style="color:#000000;font-style:normal;font-variant:normal;font-weight:normal;font-stretch:normal;font-size:medium;line-height:normal;font-family:sans-serif;text-indent:0;text-align:start;text-decoration:none;text-decoration-line:none;text-decoration-style:solid;text-decoration-color:#000000;letter-spacing:normal;word-spacing:normal;text-transform:none;direction:ltr;block-progression:tb;writing-mode:lr-tb;baseline-shift:baseline;text-anchor:start;white-space:normal;clip-rule:nonzero;display:inline;overflow:visible;visibility:visible;opacity:1;isolation:auto;mix-blend-mode:normal;color-interpolation:sRGB;color-interpolation-filters:linearRGB;solid-color:#000000;solid-opacity:1;fill:#cb3434;fill-opacity:1;fill-rule:evenodd;stroke:none;stroke-width:1px;stroke-linecap:butt;stroke-linejoin:miter;stroke-miterlimit:4;stroke-dasharray:none;stroke-dashoffset:0;stroke-opacity:1;color-rendering:auto;image-rendering:auto;shape-rendering:auto;text-rendering:auto;enable-background:accumulate" />
    </g>
  </g>
</svg>
